<?xml version="1.0" encoding="UTF-8" standalone="no"?>
<svg
   xmlns:dc="http://purl.org/dc/elements/1.1/"
   xmlns:cc="http://creativecommons.org/ns#"
   xmlns:rdf="http://www.w3.org/1999/02/22-rdf-syntax-ns#"
   xmlns:svg="http://www.w3.org/2000/svg"
   xmlns="http://www.w3.org/2000/svg"
   xmlns:xlink="http://www.w3.org/1999/xlink"
   xmlns:sodipodi="http://sodipodi.sourceforge.net/DTD/sodipodi-0.dtd"
   xmlns:inkscape="http://www.inkscape.org/namespaces/inkscape"
   inkscape:version="1.0 (4035a4fb49, 2020-05-01)"
   sodipodi:docname="6437-ufo-spaceship-alien-svg.svg"
   id="svg46"
   version="1.1"
   height="731"
   width="897">
  <sodipodi:namedview
     inkscape:current-layer="svg46"
     inkscape:window-maximized="1"
     inkscape:window-y="0"
     inkscape:window-x="0"
     inkscape:cy="435.89592"
     inkscape:cx="448.67966"
     inkscape:zoom="0.49883847"
     showgrid="false"
     id="namedview48"
     inkscape:window-height="655"
     inkscape:window-width="1280"
     inkscape:pageshadow="2"
     inkscape:pageopacity="0"
     guidetolerance="10"
     gridtolerance="10"
     objecttolerance="10"
     borderopacity="1"
     bordercolor="#666666"
     pagecolor="#ffffff" />
  <title
     id="title2">spaceship</title>
  <defs
     id="defs30">
    <linearGradient
       id="linearGradient14839">
      <stop
         offset="0"
         id="stop14841"
         stop-color="#5b5757" />
      <stop
         offset="1"
         id="stop14843"
         stop-color="black" />
    </linearGradient>
    <linearGradient
       id="linearGradient7199">
      <stop
         offset="0"
         id="stop7201"
         stop-color="#b0c2c9" />
      <stop
         offset="1"
         id="stop7203"
         stop-color="white" />
    </linearGradient>
    <linearGradient
       id="linearGradient4534">
      <stop
         offset="0"
         id="stop4536"
         stop-color="#c4c9f5" />
      <stop
         offset="1"
         id="stop4538"
         stop-color="#436697" />
    </linearGradient>
    <radialGradient
       xlink:href="#linearGradient4534"
       id="radialGradient13481"
       gradientUnits="userSpaceOnUse"
       gradientTransform="matrix(1.61879,0.0143899,-0.0163374,1.83788,-47.0338,-1023.18)"
       cx="328.37256"
       cy="531.05719"
       fx="328.37256"
       fy="531.05719"
       r="198.55791" />
    <linearGradient
       gradientUnits="userSpaceOnUse"
       gradientTransform="scale(0.81631584,1.225016)"
       xlink:href="#linearGradient7199"
       id="linearGradient13483"
       x1="470.40533"
       y1="-166.31853"
       x2="695.45996"
       y2="-166.31853" />
    <linearGradient
       gradientUnits="userSpaceOnUse"
       gradientTransform="scale(0.97284209,1.0279161)"
       xlink:href="#linearGradient4534"
       id="linearGradient13491"
       x1="55.327942"
       y1="410.07016"
       x2="375.0372"
       y2="410.07016" />
    <linearGradient
       id="linearGradient2760">
      <stop
         id="stop2762"
         offset="0"
         stop-color="#ffdf00" />
      <stop
         offset="0.391892"
         id="stop2770"
         stop-color="#ffaf3f" />
      <stop
         offset="1"
         id="stop2768"
         stop-color="#ee0a0a" />
    </linearGradient>
    <linearGradient
       id="linearGradient2776">
      <stop
         id="stop2778"
         offset="0"
         stop-color="#6c81a9" />
      <stop
         id="stop2780"
         offset="1"
         stop-color="white" />
    </linearGradient>
    <radialGradient
       xlink:href="#linearGradient2760"
       id="radialGradient13944"
       gradientUnits="userSpaceOnUse"
       gradientTransform="matrix(0.0897076,-0.720875,0.341872,-0.0717926,217.508,1013.49)"
       cx="417.36252"
       cy="572.17078"
       fx="417.36252"
       fy="572.17078"
       r="300.08646" />
    <radialGradient
       xlink:href="#linearGradient2776"
       id="radialGradient13946"
       gradientUnits="userSpaceOnUse"
       gradientTransform="matrix(-0.111552,-0.147607,0.16799,-0.0619805,971.437,1106.59)"
       cx="603.67999"
       cy="694.75159"
       fx="603.67999"
       fy="694.75159"
       r="300.08646" />
    <radialGradient
       xlink:href="#linearGradient14839"
       id="radialGradient16631"
       gradientUnits="userSpaceOnUse"
       gradientTransform="matrix(-0.292792,0,-1.34353e-7,-0.480552,46.1156,960.641)"
       cx="-399.05817"
       cy="65.044273"
       fx="-399.05817"
       fy="65.044273"
       r="146.73152" />
    <radialGradient
       xlink:href="#linearGradient14839"
       id="radialGradient16633"
       gradientUnits="userSpaceOnUse"
       gradientTransform="matrix(1,0,0,0.313461,0,424.992)"
       cx="-444.93253"
       cy="619.03656"
       fx="-444.93253"
       fy="619.03656"
       r="152.1581" />
    <radialGradient
       xlink:href="#linearGradient14839"
       id="radialGradient16635"
       gradientUnits="userSpaceOnUse"
       gradientTransform="matrix(-0.292792,0,-1.34353e-7,-0.480552,231.666,959.743)"
       cx="-399.05817"
       cy="65.044273"
       fx="-399.05817"
       fy="65.044273"
       r="146.73152" />
    <radialGradient
       xlink:href="#linearGradient14839"
       id="radialGradient16637"
       gradientUnits="userSpaceOnUse"
       gradientTransform="matrix(1,0,0,0.313461,0,424.992)"
       cx="-444.93253"
       cy="619.03656"
       fx="-444.93253"
       fy="619.03656"
       r="152.1581" />
    <linearGradient
       gradientUnits="userSpaceOnUse"
       gradientTransform="scale(0.97284209,1.0279161)"
       xlink:href="#linearGradient4534"
       id="linearGradient16655"
       x1="864.60907"
       y1="411.92978"
       x2="544.89978"
       y2="411.92978" />
  </defs>
  <metadata
     id="metadata7">image/svg+xml<rdf:RDF>
  <cc:Work
     rdf:about="">
    <dc:format>image/svg+xml</dc:format>
    <dc:type
       rdf:resource="http://purl.org/dc/dcmitype/StillImage" />
    <dc:title>spaceship</dc:title>
  </cc:Work>
</rdf:RDF>
</metadata>
  <g
     inkscape:export-ydpi="21.4"
     inkscape:export-xdpi="21.4"
     transform="matrix(1.0082743,0,0,1.0088781,-2.6805622,-38.93481)"
     id="g44">
    <title
       id="title33">Layer 1</title>
    <path
       style="fill:url(#radialGradient13944);stroke:url(#radialGradient13946)"
       id="path1872"
       d="m 384.91519,703.61401 c 31.60404,-135.1806 68.23001,113.19916 71.88373,48.60883 5.22473,-92.36523 74.83072,-118.55939 63.95468,-64.56561 -20.29724,69.73681 32.69208,4.96765 54.44452,-31.0492 21.75244,-36.01684 137.15344,-110.95642 -118.98981,-107.20636 -256.14322,3.75006 -102.52377,126.95441 -71.29312,154.21234 z"
       stroke-miterlimit="4"
       stroke-width="0"
       stroke="url(#radialGradient13946)"
       fill-rule="evenodd"
       fill="url(#radialGradient13944)"
       opacity="0.99" />
    <path
       style="fill:url(#linearGradient16655)"
       d="m 531.15765,260.36362 c 153.94806,53.22293 297.19758,228.03598 360,379.99997 -320.82281,-233.55332 -331.99621,-75.50415 -340,-100 z"
       id="path13506"
       stroke-miterlimit="4"
       stroke="#000000"
       fill-rule="evenodd"
       fill="url(#linearGradient16655)" />
    <path
       style="fill:url(#linearGradient13491)"
       d="m 363.79834,258.45285 c -153.94806,53.22287 -297.197571,228.03592 -360,379.99997 320.82284,-233.55338 331.99622,-75.50415 340,-99.99994 z"
       id="path7223"
       stroke-miterlimit="4"
       stroke="#000000"
       fill-rule="evenodd"
       fill="url(#linearGradient13491)" />
    <g
       id="g7207"
       transform="matrix(0.733795,0,0,0.733795,102.627,400.064)">
      <path
         style="fill:url(#radialGradient13481)"
         id="path3645"
         d="M 667.56122,-105.17114 C 702.87036,56.12936 584.83966,257.1702 466.13269,247.68594 367.50763,239.80618 241.59344,97.361099 287.56122,-105.17114 326.38416,-276.22333 474.7041,-492.31397 474.7041,-492.31397 c 0,0 155.36304,215.86097 192.85712,387.14283 z"
         stroke-miterlimit="4"
         stroke-linejoin="bevel"
         stroke="#000000"
         fill-rule="nonzero"
         fill="url(#radialGradient13481)"
         opacity="0.99" />
      <path
         style="fill:url(#linearGradient13483)"
         d="m 558.71405,-203.74286 a 82.857165,128.57146 0 1 1 -165.71433,0 82.857165,128.57146 0 1 1 165.71433,0 z"
         id="path6312"
         stroke-miterlimit="4"
         stroke-linejoin="bevel"
         stroke-width="16.9"
         stroke="#4d4e60"
         fill-rule="nonzero"
         fill="url(#linearGradient13483)"
         opacity="0.99" />
    </g>
    <g
       id="g16627"
       transform="matrix(0.68357,0,0,1,340.281,-20.6346)">
      <path
         style="fill:url(#radialGradient16631);stroke:url(#radialGradient16633)"
         d="m 154.34152,581.24676 a 61.711036,29.469484 0 1 1 -123.422069,0 61.711036,29.469484 0 1 1 123.422069,0 z"
         id="path13952"
         stroke-dashoffset="0"
         stroke-miterlimit="4"
         stroke-linejoin="bevel"
         stroke-width="12.8531"
         stroke="url(#radialGradient16633)"
         fill-rule="nonzero"
         fill="url(#radialGradient16631)"
         opacity="0.99" />
      <path
         style="fill:url(#radialGradient16635);stroke:url(#radialGradient16637)"
         d="m 284.69354,580.72272 a 61.711052,29.469492 0 1 1 -123.4221,0 61.711052,29.469492 0 1 1 123.4221,0 z"
         id="path16621"
         stroke-dashoffset="0"
         stroke-miterlimit="4"
         stroke-linejoin="bevel"
         stroke-width="12.8531"
         stroke="url(#radialGradient16637)"
         fill-rule="nonzero"
         fill="url(#radialGradient16635)"
         opacity="0.99" />
    </g>
  </g>
</svg>
